AWSTATS DATA FILE 6.6 (build 1.887)
# If you remove this file, all statistics for date 200906 will be lost/reset.

# Position (offset in bytes) in this file of beginning of each section for
# direct I/O access. If you made changes somewhere in this file, you should
# also remove completely the MAP section (AWStats will rewrite it at next
# update).
BEGIN_MAP 27
POS_GENERAL 1864                
POS_TIME 2534                
POS_VISITOR 8195                
POS_DAY 11348               
POS_DOMAIN 3297                
POS_LOGIN 3733                
POS_ROBOT 3888                
POS_WORMS 4420                
POS_EMAILSENDER 4551                
POS_EMAILRECEIVER 4694                
POS_SESSION 12093               
POS_SIDER 12299               
POS_FILETYPES 4829                
POS_OS 4991                
POS_BROWSER 5127                
POS_SCREENSIZE 5366                
POS_UNKNOWNREFERER 5440                
POS_UNKNOWNREFERERBROWSER 5925                
POS_ORIGIN 6169                
POS_SEREFERRALS 6312                
POS_PAGEREFS 6507                
POS_SEARCHWORDS 6965                
POS_KEYWORDS 7425                
POS_MISC 2197                
POS_ERRORS 7633                
POS_CLUSTER 3589                
POS_SIDER_404 7754                
END_MAP

# LastLine    = Date of last record processed - Last record line number in last log - Last record offset in last log - Last record signature value
# FirstTime   = Date of first visit for history file
# LastTime    = Date of last visit for history file
# LastUpdate  = Date of last update - Nb of parsed records - Nb of parsed old records - Nb of parsed new records - Nb of parsed corrupted - Nb of parsed dropped
# TotalVisits = Number of visits
# TotalUnique = Number of unique visitors
# MonthHostsKnown   = Number of hosts known
# MonthHostsUnKnown = Number of hosts unknown
BEGIN_GENERAL 8
LastLine 20090701020811 1466 507 34674862061
FirstTime 0
LastTime 20090630193748
LastUpdate 20090701083159 1466 1316 149 0 0
TotalVisits 120                 
TotalUnique 73                  
MonthHostsKnown 0                   
MonthHostsUnknown 81                  
END_GENERAL

# Misc ID - Pages - Hits - Bandwidth
BEGIN_MISC 10
QuickTimeSupport 0 0 0
JavaEnabled 0 0 0
JavascriptDisabled 0 0 0
PDFSupport 0 0 0
WindowsMediaPlayerSupport 0 0 0
AddToFavourites 0 27 0
RealPlayerSupport 0 0 0
TotalMisc 0 0 0
DirectorSupport 0 0 0
FlashSupport 0 0 0
END_MISC

# Hour - Pages - Hits - Bandwidth - Not viewed Pages - Not viewed Hits - Not viewed Bandwidth
BEGIN_TIME 24
0 21 21 119507 22 25 74366
1 2 2 8620 23 25 63456
2 1 1 4310 15 18 27929
3 6 6 24708 13 16 36328
4 17 24 91056 12 15 64567
5 13 23 134374 18 24 53042
6 11 11 57385 2 3 11979
7 0 0 0 15 17 35314
8 12 40 204086 14 30 56973
9 23 70 429278 17 41 117924
10 30 203 788351 5 47 37522
11 7 17 84839 18 27 82731
12 54 105 590464 13 49 35098
13 31 94 468317 7 25 49196
14 15 94 325011 4 25 26134
15 22 87 444566 11 33 54461
16 46 178 897592 117 158 425800
17 16 69 357704 32 44 168424
18 7 7 28120 8 11 18944
19 17 55 298256 26 47 123563
20 2 2 8041 30 31 118997
21 11 42 241399 26 33 109286
22 17 32 164813 7 13 37871
23 17 85 293812 5 18 37190
END_TIME

# Domain - Pages - Hits - Bandwidth
# The 10 first Pages must be first (order not required for others)
BEGIN_DOMAIN 15
gb 240 966 4700568
de 32 32 152835
us 29 48 288780
unknown 26 48 276866
in 12 100 216593
lb 12 12 71243
pl 10 10 63202
sa 10 10 53075
tw 9 9 59471
eu 8 23 131439
br 2 2 8041
cn 2 2 6863
ru 2 2 19551
kr 3 3 12351
nl 1 1 3731
END_DOMAIN

# Cluster ID - Pages - Hits - Bandwidth
BEGIN_CLUSTER 0
END_CLUSTER

# Login - Pages - Hits - Bandwidth - Last visit
# The 10 first Pages must be first (order not required for others)
BEGIN_LOGIN 0
END_LOGIN

# Robot ID - Hits - Bandwidth - Last visit - Hits on robots.txt
# The 10 first Hits must be first (order not required for others)
BEGIN_ROBOT 12
googlebot 196 914650 20090630163058 0
slurp 102 462170 20090630165824 0
robot 25 171724 20090620115320 0
vagabondo 9 59471 20090628095728 0
jeeves 7 26386 20090618150603 0
yandex 6 25860 20090630133744 0
msnbot\-media 4 12097 20090616145138 0
nutch 4 28750 20090626214459 0
larbin 1 4310 20090611072351 0
msnbot 1 4310 20090606212444 0
netcraft 1 4310 20090613184451 0
crawl 1 4310 20090604050140 0
END_ROBOT

# Worm ID - Hits - Bandwidth - Last visit
# The 5 first Hits must be first (order not required for others)
BEGIN_WORMS 0
END_WORMS

# EMail - Hits - Bandwidth - Last visit
# The 20 first Hits must be first (order not required for others)
BEGIN_EMAILSENDER 0
END_EMAILSENDER

# EMail - Hits - Bandwidth - Last visit
# The 20 first hits must be first (order not required for others)
BEGIN_EMAILRECEIVER 0
END_EMAILRECEIVER

# Files type - Hits - Bandwidth - Bandwidth without compression - Bandwidth after compression
BEGIN_FILETYPES 6
css 72 389599 0 0
php 299 1530541 0 0
html 99 426690 0 0
jpg 233 2693509 0 0
js 141 650208 0 0
gif 424 374062 0 0
END_FILETYPES

# OS ID - Hits
BEGIN_OS 10
winlong 187
winxp 923
winnt 14
win98 21
linux 2
winme 1
macosx 33
win95 1
win2003 29
Unknown 57
END_OS

# Browser ID - Hits
BEGIN_BROWSER 15
msie8.0 174
msie6.0 382
firefox1.0 2
mozilla 54
msie7.0 452
opera 2
msie2.0 1
firefox3.0.11 38
curl 1
firefox3.0.10 21
Unknown 2
firefox3.5 10
safari 84
firefox3.0.8 13
firefox2.0.0.13 32
END_BROWSER

# Screen size - Hits
BEGIN_SCREENSIZE 0
END_SCREENSIZE

# Unknown referer OS - Last visit date
BEGIN_UNKNOWNREFERER 6
Mozilla/5.0_(compatible;_ScoutJet;__http://www.scoutjet.com/) 20090625235232
Mozilla/5.0_(compatible;_Charlotte/1.1;_http://www.searchme.com/support/) 20090617193745
facebookexternalhit/1.0_(_http://www.facebook.com/externalhit_uatext.php) 20090616131005
Yanga_WorldSearch_Bot_v1.1/beta_(http://www.yanga.co.uk/) 20090601082253
Mozilla/4.0_(compatible;) 20090630221700
PycURL/7.19.0 20090616130955
END_UNKNOWNREFERER

# Unknown referer Browser - Last visit date
BEGIN_UNKNOWNREFERERBROWSER 2
facebookexternalhit/1.0_(_http://www.facebook.com/externalhit_uatext.php) 20090616131005
Yanga_WorldSearch_Bot_v1.1/beta_(http://www.yanga.co.uk/) 20090601082253
END_UNKNOWNREFERERBROWSER

# Origin - Pages - Hits 
BEGIN_ORIGIN 6
From0 170 187
From1 0 0
From2 37 37
From3 13 15
From4 178 1029
From5 0 0
END_ORIGIN

# Search engine referers ID - Pages - Hits
BEGIN_SEREFERRALS 4
google 33 33
search 1 1
google_image 1 1
yahoo 2 2
END_SEREFERRALS

# External page referers - Pages - Hits
# The 10 first Pages must be first (order not required for others)
BEGIN_PAGEREFS 6
http://www.joiner-in-sheffield.co.uk 4 4
http://www.yesl.co.uk/portfolio.php 4 4
http://www.joiner-in-sheffield.co.uk/page/contact_us 2 2
http://www.joiner-in-sheffield.co.uk/page/joinery_gallery 2 2
http://www.joiner-in-sheffield.co.uk/page/garden_furniture_gallery 1 1
http://www.facebook.com/sharer.php 0 2
END_PAGEREFS

# Search keyphrases - Number of search
# The 10 first number of search must be first (order not required for others)
BEGIN_SEARCHWORDS 13
apex+joinery 21
joinery+contractors+in+sheffield 2
joinery+contractors 2
www.apexjoinerycontractors.co.uk+recommend 1
apex+joinery+sheffield 1
apex+joinery+contractors+ltd 1
joinery+images 1
apex+joinery+ltd 1
frnt 1
apex+contractors 1
joiner+sheffield+apex 1
apexjoinery.co.uk 1
apex+joinery+contractors 1
END_SEARCHWORDS

# Search keywords - Number of search
# The 10 first number of search must be first (order not required for others)
BEGIN_KEYWORDS 12
joinery 30
apex 27
contractors 7
sheffield 4
ltd 2
in 2
images 1
recommend 1
frnt 1
joiner 1
www.apexjoinerycontractors.co.uk 1
apexjoinery.co.uk 1
END_KEYWORDS

# Errors - Hits - Bandwidth
BEGIN_ERRORS 4
302 1 0
206 3 23501
500 2 1248
404 412 123998
END_ERRORS

# URL with 404 errors - Hits - Last URL referer
BEGIN_SIDER_404 3
/robots.txt 162 -
/noexist_04fafe674bbb848a.html 2 -
/images/callnow.gif 248 http://www.apexjoinerycontractors.co.uk/css/master.css
END_SIDER_404

# Host - Pages - Hits - Bandwidth - Last visit date - [Start date of last visit] - [Last page of last visit]
# [Start date of last visit] and [Last page of last visit] are saved only if session is not finished
# The 10 first Hits must be first (order not required for others)
BEGIN_VISITOR 81
79.68.44.223 56 119 704460 20090618170145
62.105.92.245 29 46 160899 20090629091849
93.174.93.233 20 20 100512 20090616130419
89.149.226.14 20 20 105747 20090626181116
194.70.26.6 18 120 399411 20090619161444
86.145.160.96 17 81 217362 20090617230023
213.249.149.2 14 44 176968 20090630164136
194.8.75.251 12 12 71243 20090611225147
122.160.216.14 12 100 216593 20090618104454
88.198.54.120 12 12 47088 20090603042234
195.93.21.97 0 1 67 
194.8.75.155 1 1 4919 20090619054325
79.68.122.203 4 19 110015 20090612192531
174.129.243.238 1 1 15820 20090616130955
74.52.245.146 2 2 8620 20090625024330
92.26.96.145 8 43 210359 20090621172716
79.68.41.174 2 17 90667 20090611233818
38.108.180.54 2 2 18054 20090625235232
210.127.55.126 1 1 4310 20090606000608
82.4.179.221 3 16 86407 20090622221215
81.137.210.153 3 17 68964 20090626105933
221.202.93.253 1 1 3132 20090608050529
62.252.236.33 7 21 108132 20090630193748
69.63.178.248 1 1 15820 20090616131005
80.194.167.137 1 10 61032 20090625232434
195.93.21.65 0 1 140 
62.254.171.28 7 32 184869 20090608091945
195.93.21.7 0 1 140 
217.41.89.241 1 10 61032 20090604105033
82.38.42.120 1 10 61032 20090618215824
113.64.166.153 1 1 3132 20090626181057
80.192.120.40 2 18 90807 20090611105022
92.4.73.53 6 28 213129 20090616164509
212.116.219.52 3 3 10877 20090603063204
216.104.15.130 1 1 694 20090628132821
195.93.21.37 1 1 4310 20090624231947
195.93.21.42 0 2 6814 
90.202.212.212 9 54 251283 20090607164313
86.158.63.253 2 13 64234 20090612094756
195.93.21.40 0 3 8991 
91.205.124.2 1 1 4310 20090601082253
66.237.61.204 2 2 18904 20090630163045
204.62.53.203 2 2 7742 20090616220834
81.151.176.252 1 10 61032 20090628081904
195.93.21.102 1 1 3432 20090624232002
94.192.138.242 1 10 61032 20090617195555
86.162.114.51 1 10 61032 20090622105528
92.239.170.86 10 27 188022 20090628132729
195.59.114.60 8 23 131439 20090622081822
82.148.34.105 2 14 84109 20090626102910
81.140.73.244 2 14 84109 20090624162407
92.241.160.25 2 2 19551 20090630035514
80.81.159.20 12 12 71243 20090605121230
83.19.216.98 10 10 63202 20090601043417
204.62.53.204 7 7 51729 20090617193745
66.249.85.132 1 9 54870 20090612102606
211.75.91.19 9 9 59471 20090606000659
94.7.189.234 2 15 92060 20090610215625
86.1.236.177 1 10 61032 20090627214934
210.127.55.123 2 2 8041 20090606000611
81.149.79.126 1 10 61032 20090630133054
195.93.21.5 2 2 7305 20090624232002
200.96.116.99 2 2 8041 20090606000603
81.129.160.76 1 10 61032 20090608145516
99.146.0.2 1 1 4310 20090628133055
195.93.21.2 0 1 7473 
213.120.92.197 4 16 91414 20090616101144
87.212.46.205 1 1 3731 20090602210612
81.138.145.161 2 14 84109 20090608164208
24.62.226.135 3 3 11036 20090607162800
38.108.180.25 2 2 9205 20090625124747
83.105.14.217 2 14 84109 20090608161218
195.93.21.100 1 1 15820 20090624232002
79.76.68.187 1 10 61032 20090623174445
85.189.143.226 3 24 145141 20090630171214
212.116.219.91 3 3 13545 20090603063205
86.156.75.100 6 52 176139 20090616130939
212.116.219.92 4 4 28653 20090603063202
195.93.21.101 0 1 27231 
195.93.21.70 0 1 6073 
121.9.221.189 1 1 3731 20090619001909
END_VISITOR

# Date - Pages - Hits - Bandwidth - Visits
BEGIN_DAY 30
20090601 14 14 79284 3
20090602 2 12 64903 2
20090603 19 19 88391 4
20090604 1 10 61032 1
20090605 12 12 71243 1
20090606 15 15 84758 5
20090607 13 58 278139 3
20090608 20 68 400491 6
20090609 10 10 37310 1
20090610 18 34 197508 5
20090611 20 51 269957 7
20090612 8 42 233429 4
20090613 1 8 4310 1
20090614 1 1 4310 1
20090615 2 16 15434 2
20090616 38 154 842272 11
20090617 88 269 1155244 15
20090618 18 116 297281 6
20090619 8 19 44563 4
20090620 1 1 4310 1
20090621 8 43 210359 1
20090622 12 49 278878 3
20090623 2 11 65342 2
20090624 9 32 180525 7
20090625 6 15 93186 6
20090626 9 35 168842 4
20090627 1 10 61032 1
20090628 13 39 254058 4
20090629 1 1 4310 1
20090630 28 104 513908 8
END_DAY

# Session range - Number of visits
BEGIN_SESSION 7
1h+ 4
5mn-15mn 3
15mn-30mn 2
2mn-5mn 4
30s-2mn 9
0s-30s 97
30mn-1h 1
END_SESSION

# URL - Pages - Bandwidth - Entry - Exit
# The 10 first Pages must be first (order not required for others)
BEGIN_SIDER 10
/ 99 426690 67 41
/index.php 75 311670 13 19
/gallery.php 50 171600 3 6
/contact-us.php 48 179088 12 17
/about-us.php 44 131780 3 5
/enquiry-form.php 30 474600 6 9
/recommend.php 27 127143 13 16
/largeview.php 16 11104 1 4
/request.php 8 120472 2 2
/thank-you.php 1 3084 0 1
END_SIDER
