AWSTATS DATA FILE 6.6 (build 1.887)
# If you remove this file, all statistics for date 200903 will be lost/reset.

# Position (offset in bytes) in this file of beginning of each section for
# direct I/O access. If you made changes somewhere in this file, you should
# also remove completely the MAP section (AWStats will rewrite it at next
# update).
BEGIN_MAP 27
POS_GENERAL 1864                
POS_TIME 2529                
POS_VISITOR 7735                
POS_DAY 9322                
POS_DOMAIN 3262                
POS_LOGIN 3597                
POS_ROBOT 3752                
POS_WORMS 4158                
POS_EMAILSENDER 4289                
POS_EMAILRECEIVER 4432                
POS_SESSION 9916                
POS_SIDER 10094               
POS_FILETYPES 4567                
POS_OS 4726                
POS_BROWSER 4816                
POS_SCREENSIZE 4953                
POS_UNKNOWNREFERER 5027                
POS_UNKNOWNREFERERBROWSER 5406                
POS_ORIGIN 5703                
POS_SEREFERRALS 5842                
POS_PAGEREFS 6009                
POS_SEARCHWORDS 6277                
POS_KEYWORDS 6781                
POS_MISC 2192                
POS_ERRORS 7036                
POS_CLUSTER 3453                
POS_SIDER_404 7133                
END_MAP

# LastLine    = Date of last record processed - Last record line number in last log - Last record offset in last log - Last record signature value
# FirstTime   = Date of first visit for history file
# LastTime    = Date of last visit for history file
# LastUpdate  = Date of last update - Nb of parsed records - Nb of parsed old records - Nb of parsed new records - Nb of parsed corrupted - Nb of parsed dropped
# TotalVisits = Number of visits
# TotalUnique = Number of unique visitors
# MonthHostsKnown   = Number of hosts known
# MonthHostsUnKnown = Number of hosts unknown
BEGIN_GENERAL 8
LastLine 20090401054858 668 229 32163201609
FirstTime 0
LastTime 20090331202701
LastUpdate 20090402074134 668 667 0 0 0
TotalVisits 43                  
TotalUnique 34                  
MonthHostsKnown 0                   
MonthHostsUnknown 41                  
END_GENERAL

# Misc ID - Pages - Hits - Bandwidth
BEGIN_MISC 10
QuickTimeSupport 0 0 0
JavaEnabled 0 0 0
JavascriptDisabled 0 0 0
PDFSupport 0 0 0
WindowsMediaPlayerSupport 0 0 0
AddToFavourites 0 13 0
RealPlayerSupport 0 0 0
TotalMisc 0 0 0
DirectorSupport 0 0 0
FlashSupport 0 0 0
END_MISC

# Hour - Pages - Hits - Bandwidth - Not viewed Pages - Not viewed Hits - Not viewed Bandwidth
BEGIN_TIME 24
0 0 0 0 11 14 70620
1 11 11 56749 16 21 111235
2 0 0 0 19 22 116545
3 0 0 0 15 21 85783
4 0 0 0 10 14 41073
5 11 13 77924 10 15 62288
6 0 0 0 16 21 51679
7 4 19 98409 3 7 14074
8 3 25 145281 9 15 39230
9 9 9 44357 15 19 103514
10 8 35 220424 5 15 23945
11 2 12 64604 14 20 70170
12 2 12 65482 6 9 36722
13 12 74 171918 12 28 70412
14 5 26 102248 7 13 25871
15 12 36 203644 25 34 82475
16 2 12 64903 52 61 265108
17 31 45 276245 46 49 149011
18 2 12 65482 43 44 264529
19 2 5 6747 34 38 214223
20 9 27 161188 37 41 143726
21 15 106 442339 16 33 74053
22 4 21 183382 18 26 93756
23 14 28 160359 12 19 106612
END_TIME

# Domain - Pages - Hits - Bandwidth
# The 10 first Pages must be first (order not required for others)
BEGIN_DOMAIN 8
gb 63 409 1924652
de 38 40 256337
us 34 34 172194
unknown 18 18 118942
br 2 2 18904
cn 2 2 7742
in 1 11 61172
ca 0 12 51742
END_DOMAIN

# Cluster ID - Pages - Hits - Bandwidth
BEGIN_CLUSTER 0
END_CLUSTER

# Login - Pages - Hits - Bandwidth - Last visit
# The 10 first Pages must be first (order not required for others)
BEGIN_LOGIN 0
END_LOGIN

# Robot ID - Hits - Bandwidth - Last visit - Hits on robots.txt
# The 10 first Hits must be first (order not required for others)
BEGIN_ROBOT 8
slurp 171 1024491 20090331192210 0
googlebot 171 988094 20090331220027 0
vagabondo 18 118942 20090306184028 0
java 9 63182 20090330011534 0
yandex 7 30170 20090331225459 0
nutch 3 12930 20090318221533 0
^voyager\/ 2 8620 20090327113741 0
ia_archiver 2 6427 20090313064123 0
END_ROBOT

# Worm ID - Hits - Bandwidth - Last visit
# The 5 first Hits must be first (order not required for others)
BEGIN_WORMS 0
END_WORMS

# EMail - Hits - Bandwidth - Last visit
# The 20 first Hits must be first (order not required for others)
BEGIN_EMAILSENDER 0
END_EMAILSENDER

# EMail - Hits - Bandwidth - Last visit
# The 20 first hits must be first (order not required for others)
BEGIN_EMAILRECEIVER 0
END_EMAILRECEIVER

# Files type - Hits - Bandwidth - Bandwidth without compression - Bandwidth after compression
BEGIN_FILETYPES 6
css 30 174922 0 0
php 118 695545 0 0
html 40 163780 0 0
js 62 311558 0 0
jpg 93 1119381 0 0
gif 185 146499 0 0
END_FILETYPES

# OS ID - Hits
BEGIN_OS 5
winxp 291
winlong 144
win2000 2
winnt 6
Unknown 85
END_OS

# Browser ID - Hits
BEGIN_BROWSER 7
msie6.0 67
firefox3.0.7 63
mozilla 10
msie7.0 269
Unknown 81
firefox3.0.6 21
safari 17
END_BROWSER

# Screen size - Hits
BEGIN_SCREENSIZE 0
END_SCREENSIZE

# Unknown referer OS - Last visit date
BEGIN_UNKNOWNREFERER 6
- 20090321195544
192.comAgent 20090306054713
Mozilla/5.0_(compatible;_ScoutJet;__http://www.scoutjet.com/) 20090304143647
Yanga_WorldSearch_Bot_v1.1/beta_(http://www.yanga.co.uk/) 20090331202701
Shelob_(shelob@gmx.net) 20090329174716
BPImageWalker/2.0_(www.bdbrandprotect.com) 20090311200112
END_UNKNOWNREFERER

# Unknown referer Browser - Last visit date
BEGIN_UNKNOWNREFERERBROWSER 5
- 20090321195544
192.comAgent 20090306054713
Yanga_WorldSearch_Bot_v1.1/beta_(http://www.yanga.co.uk/) 20090331202701
Shelob_(shelob@gmx.net) 20090329174716
BPImageWalker/2.0_(www.bdbrandprotect.com) 20090311200112
END_UNKNOWNREFERERBROWSER

# Origin - Pages - Hits 
BEGIN_ORIGIN 6
From0 101 115
From1 0 0
From2 18 18
From3 5 5
From4 34 390
From5 0 0
END_ORIGIN

# Search engine referers ID - Pages - Hits
BEGIN_SEREFERRALS 2
google 17 17
yahoo 1 1
END_SEREFERRALS

# External page referers - Pages - Hits
# The 10 first Pages must be first (order not required for others)
BEGIN_PAGEREFS 2
http://www.yesl.co.uk/portfolio.php 4 4
http://concepts.sitesinprogress.co.uk/various-concepts/priya2008/update.htm 1 1
END_PAGEREFS

# Search keyphrases - Number of search
# The 10 first number of search must be first (order not required for others)
BEGIN_SEARCHWORDS 11
apex+joinery 5
electrician+thurcroft 2
electrical+contractors+in+sheffield 2
joinery+contractors 2
where+can+i+find+joinery+contractors%3f 1
electrician+worksop 1
joinery+contractors+in+south+yorkshire 1
www.apexjoinerycontractors.co.uk 1
joinery+contractors+in+yorkshire 1
electrical+contractors+in+south+yorkshire 1
electrical+contractors+worksop 1
END_SEARCHWORDS

# Search keywords - Number of search
# The 10 first number of search must be first (order not required for others)
BEGIN_KEYWORDS 17
joinery 10
contractors 8
apex 5
in 5
electrical 4
electrician 3
yorkshire 3
south 2
worksop 2
thurcroft 2
find 1
www.apexjoinerycontractors.co.uk 1
i 1
sheffield 2
can 1
contractors%3f 1
where 1
END_KEYWORDS

# Errors - Hits - Bandwidth
BEGIN_ERRORS 2
302 1 0
404 215 63798
END_ERRORS

# URL with 404 errors - Hits - Last URL referer
BEGIN_SIDER_404 11
/contact.php 1 -
/robots.txt 140 -
/noexist_04fafe674bbb848a.html 2 -
/about.php 1 -
/js/largeview.php 1 -
/js/\\\"\"+this.getAttribute(\"swf\")+\"\\\" 1 -
/contact-de.php 1 -
/contact-.php 1 -
/images/callnow.gif 65 http://www.apexjoinerycontractors.co.uk/
/about-de.php 1 -
/about-.php 1 -
END_SIDER_404

# Host - Pages - Hits - Bandwidth - Last visit date - [Start date of last visit] - [Last page of last visit]
# [Start date of last visit] and [Last page of last visit] are saved only if session is not finished
# The 10 first Hits must be first (order not required for others)
BEGIN_VISITOR 41
85.25.124.167 27 27 178413 20090329174716
91.205.124.2 18 18 118942 20090331202701
85.195.122.12 11 13 77924 20090306054713
67.159.45.10 9 9 47496 20090311230521
69.56.251.139 9 9 44357 20090304093811
69.4.238.200 8 8 44412 20090303013229
212.159.161.236 6 6 22072 20090330134118
86.24.115.222 6 21 136522 20090313104922
87.115.132.8 6 23 148312 20090314212932
84.13.233.31 5 57 88674 20090318131735
86.146.73.30 2 14 83902 20090315105737
72.14.164.170 0 2 9909 
72.14.164.131 0 2 19139 
72.14.164.167 0 1 0 
78.148.190.147 1 11 61172 20090321162554
213.123.168.213 2 12 65482 20090325124232
217.33.241.216 1 11 61172 20090318141341
90.200.160.138 4 21 183382 20090313220331
86.152.33.6 3 17 93522 20090309171144
213.143.23.241 1 11 61172 20090325132849
91.85.150.21 2 14 64374 20090316152242
72.14.193.1 2 2 0 20090321195544
72.14.164.145 0 1 0 
38.108.180.166 4 4 27902 20090304143647
86.151.55.65 2 14 84109 20090319152541
81.157.187.170 1 10 61032 20090302200519
86.142.140.15 1 10 61032 20090324213052
82.39.92.50 2 12 65482 20090331184718
202.78.163.166 1 11 61172 20090323084943
86.10.197.109 3 17 93522 20090328212255
72.14.164.153 0 2 7918 
81.136.213.166 2 14 84109 20090325085316
82.27.29.61 3 17 93959 20090325233449
81.149.100.205 3 24 81509 20090324140444
72.14.164.166 0 2 6747 
88.104.200.114 5 56 139473 20090306211642
74.5.234.217 2 2 8027 20090303013225
118.81.195.14 2 2 7742 20090317072159
189.81.63.201 2 2 18904 20090311230428
72.14.164.199 0 2 8029 
90.208.131.94 2 17 90667 20090321072515
END_VISITOR

# Date - Pages - Hits - Bandwidth - Visits
BEGIN_DAY 24
20090301 1 1 3731 1
20090302 2 11 65951 2
20090303 11 11 55871 3
20090304 10 10 60177 2
20090306 16 69 217397 2
20090307 1 1 4310 1
20090308 1 1 4310 1
20090309 10 24 144373 2
20090311 11 23 118142 2
20090313 10 42 319904 2
20090314 6 23 148312 1
20090315 2 14 83902 1
20090316 2 14 64374 1
20090317 2 2 7742 1
20090318 6 68 149846 2
20090319 3 15 88419 2
20090321 12 37 202690 4
20090323 1 11 61172 1
20090324 4 34 142541 3
20090325 8 54 304722 4
20090328 3 17 93522 1
20090329 27 27 178413 1
20090330 6 6 22072 1
20090331 3 13 69792 2
END_DAY

# Session range - Number of visits
BEGIN_SESSION 4
5mn-15mn 2
2mn-5mn 1
0s-30s 37
30s-2mn 3
END_SESSION

# URL - Pages - Bandwidth - Entry - Exit
# The 10 first Pages must be first (order not required for others)
BEGIN_SIDER 11
/ 38 163780 31 13
/recommend.php 22 105999 3 7
/gallery.php 20 68640 1 5
/about-us.php 18 53910 2 3
/contact-us.php 17 63427 1 5
/enquiry-form.php 16 253120 3 3
/index.php 12 51720 0 3
/request.php 8 90479 0 1
/largeview.php 3 2082 0 1
/thank-you.php 2 6168 1 1
/google04fafe674bbb848a.html 2 0 1 1
END_SIDER
